{
  "images" : [
    {
      "idiom" : "universal",
      "scale" : "1x"
    },
    {
      "idiom" : "universal",
      "filename" : "6b422756a0dc6bf38fd64cd6b908a62da4b17465dd19b-WqkuEN@2x.png",
      "scale" : "2x"
    },
    {
      "idiom" : "universal",
      "filename" : "6b422756a0dc6bf38fd64cd6b908a62da4b17465dd19b-WqkuEN@3x.png",
      "scale" : "3x"
    }
  ],
  "info" : {
    "version" : 1,
    "author" : "xcode"
  }
}